<svg width="85" height="4" viewBox="0 0 85 4" fill="none" xmlns="http://www.w3.org/2000/svg">
<rect width="85" height="4" fill="#1E1E1E"/>
<g id="Cleaning Services 4 " clip-path="url(#clip0_0_1)">
<rect width="1920" height="9339" transform="translate(-300 -1151)" fill="white"/>
<g id="About">
<g id="Group 1000008033">
<g id="Group 1000008018">
<g id="Lebel">
<g id="Group 1000008015">
<rect id="Rectangle 5463" y="1" width="38" height="2" rx="1" fill="#FE6B01"/>
<rect id="Rectangle 5464" x="49" y="1" width="36" height="2" rx="1" fill="#FE6B01"/>
<rect id="Rectangle 5465" x="41" width="4" height="4" rx="2" fill="#FE6B01"/>
</g>
</g>
</g>
</g>
</g>
</g>
<defs>
<clipPath id="clip0_0_1">
<rect width="1920" height="9339" fill="white" transform="translate(-300 -1151)"/>
</clipPath>
</defs>
</svg>
