<svg width="32" height="33" viewBox="0 0 32 33" fill="none" xmlns="http://www.w3.org/2000/svg">
<rect width="32" height="33" fill="#1E1E1E"/>
<g id="Cleaning Services 4 " clip-path="url(#clip0_0_1)">
<rect width="1920" height="9339" transform="translate(-784 -2556)" fill="white"/>
<g id="Services">
<g id="Group 1000008028">
<rect id="BG" x="-784" y="-749" width="1920" height="1060" fill="#F4F9FD"/>
<g id="Group 1000008024">
<g id="BG_2" filter="url(#filter0_d_0_1)">
<rect x="-32" y="-376.729" width="420" height="441" rx="12" fill="white"/>
</g>
<g id="cil:arrow-right">
<path id="Vector" d="M22.4921 7.85767L21.0779 9.27185L27.0777 15.2717H1V17.2717H27.0775L21.0779 23.2714L22.4921 24.6855L30.9061 16.2716L22.4921 7.85767Z" fill="#48B774"/>
</g>
</g>
</g>
</g>
</g>
<defs>
<filter id="filter0_d_0_1" x="-96" y="-386.729" width="548" height="569" filterUnits="userSpaceOnUse" color-interpolation-filters="sRGB">
<feFlood flood-opacity="0" result="BackgroundImageFix"/>
<feColorMatrix in="SourceAlpha" type="matrix" values="0 0 0 0 0 0 0 0 0 0 0 0 0 0 0 0 0 0 127 0" result="hardAlpha"/>
<feMorphology radius="16" operator="erode" in="SourceAlpha" result="effect1_dropShadow_0_1"/>
<feOffset dy="54"/>
<feGaussianBlur stdDeviation="40"/>
<feComposite in2="hardAlpha" operator="out"/>
<feColorMatrix type="matrix" values="0 0 0 0 0.858824 0 0 0 0 0.870588 0 0 0 0 0.898039 0 0 0 0.8 0"/>
<feBlend mode="normal" in2="BackgroundImageFix" result="effect1_dropShadow_0_1"/>
<feBlend mode="normal" in="SourceGraphic" in2="effect1_dropShadow_0_1" result="shape"/>
</filter>
<clipPath id="clip0_0_1">
<rect width="1920" height="9339" fill="white" transform="translate(-784 -2556)"/>
</clipPath>
</defs>
</svg>
